Lab 5 - Poisson - Questions
…
A: The 7 specified columns specified are chosen to put in a new df. Then for each of the columns, if an element is a certain value, it becomes NA

Q: The next step in data cleaning would be to ensure that the data in your code are aligned with the description/ usage context of the variables

Recode sex and reliten as necessary

data_pos$sex_recode = as.factor(data_pos$sex)
data_pos$reliten_recode = as.factor(data_pos$reliten)

Missingness

data_pos %>%
  dplyr::select(reliten, reliten_recode)

# A tibble: 2,044 × 2
   reliten reliten_recode
     <dbl> <fct>         
 1       1 1             
 2       4 4             
 3       1 1             
 4       1 1             
 5       1 1             
 6       4 4             
 7       3 3             
 8       1 1             
 9       1 1             
10       1 1             
# ℹ 2,034 more rows
…
